# Blender v2.63 (sub 0) OBJ File: ''
# www.blender.org
o Mesh_Mesh_Mesh_cube
v -1.000000 -1.000000 1.000000
v 1.000000 -1.000000 -1.000000
v 1.000000 -1.000000 1.000000
v -1.000000 -1.000000 -1.000000
v -1.000000 1.000000 -1.000000
v -1.000000 1.000000 1.000000
v 1.000000 1.000000 -1.000000
v 1.000000 1.000000 1.000000
vt 0.000000 0.000000
vt 1.000000 1.000000
vt 1.000000 0.000000
vt 0.000000 1.000000
vn -0.577349 -0.577349 0.577349
vn 0.577349 -0.577349 -0.577349
vn 0.577349 -0.577349 0.577349
vn -0.577349 -0.577349 -0.577349
vn -0.577349 0.577349 -0.577349
vn -0.577349 0.577349 0.577349
vn 0.577349 0.577349 -0.577349
vn 0.577349 0.577349 0.577349
s 1
f 1/1/1 2/2/2 3/3/3
f 1/1/1 4/4/4 2/2/2
f 1/1/1 5/2/5 4/3/4
f 1/1/1 6/4/6 5/2/5
f 4/1/4 7/2/7 2/3/2
f 4/1/4 5/4/5 7/2/7
f 3/1/3 2/4/2 7/2/7
f 3/1/3 7/2/7 8/3/8
f 1/1/1 3/3/3 8/2/8
f 1/1/1 8/2/8 6/4/6
f 6/1/6 8/3/8 7/2/7
f 6/1/6 7/2/7 5/4/5
